<?xml version="1.0" encoding="UTF-8" standalone="no"?>
<svg width="37px" height="50px" viewBox="0 0 37 50" version="1.1" xmlns="http://www.w3.org/2000/svg" xmlns:xlink="http://www.w3.org/1999/xlink">
    <!-- Generator: Sketch 3.8.3 (29802) - http://www.bohemiancoding.com/sketch -->
    <title>towel</title>
    <desc>Created with Sketch.</desc>
    <defs></defs>
    <g id="PreLaunch" stroke="none" stroke-width="1" fill="none" fill-rule="evenodd">
        <g id="Landing-Page-(Desktop)" transform="translate(-821.000000, -1451.000000)" stroke="#00D2C1" fill="#00D2C1">
            <g id="Services" transform="translate(0.000000, 1200.000000)">
                <g transform="translate(342.000000, 175.000000)" id="Group-6">
                    <g transform="translate(1.000000, 77.000000)">
                        <g id="Linen-Hire" transform="translate(479.000000, 0.000000)">
                            <g id="towel">
                                <g id="Shape">
                                    <path d="M18.1853437,11.9048559 L18.1853437,8.9520896 C20.449864,8.70942307 22.2186271,6.80048682 22.2186271,4.48908813 C22.2186271,2.01388953 20.190007,-8.69281007e-17 17.6964312,-8.69281007e-17 C15.2028554,-8.69281007e-17 13.1742353,2.01388953 13.1742353,4.48908813 C13.1742353,4.75711331 13.3931459,4.97442118 13.6631478,4.97442118 C13.9331497,4.97442118 14.1520603,4.75711331 14.1520603,4.48908813 C14.1520603,2.54909056 15.7420036,0.970666117 17.6964312,0.970666117 C19.6508588,0.970666117 21.2408021,2.54909056 21.2408021,4.48908813 C21.2408021,6.42908569 19.6507366,8.00751013 17.6964312,8.00751013 C17.4264293,8.00751013 17.2075187,8.22481801 17.2075187,8.49284319 L17.2075187,11.9507199 C17.2075187,11.9563012 2.2892104,19.0158042 2.2892104,19.0158042 C1.62612286,19.3982467 1.07255172,19.949949 0.688388753,20.6115793 C0.305936976,21.2713896 0.103771671,22.0234132 0.103771671,22.7865994 C0.103771671,25.1923954 2.07494451,27.1497436 4.49787247,27.1497436 L4.88716902,27.1497436 L4.88716902,47.9935852 C4.88716902,48.2616103 5.10607958,48.4789182 5.37608149,48.4789182 L30.1260528,48.4789182 C30.3960547,48.4789182 30.6149653,48.2616103 30.6149653,47.9935852 L30.6149653,27.1497436 L31.0042619,27.1497436 C32.1776518,27.1497436 33.281005,26.6959572 34.1110561,25.8718617 C34.9412295,25.0478875 35.3983627,23.9521268 35.3983627,22.7865994 C35.3983627,21.2385083 34.5609778,19.7935505 33.2130462,19.0158042 L18.1853437,11.9048559 Z M5.86499395,25.7301444 L8.70618653,25.7301444 L8.70618653,47.5082521 L5.86499395,47.5082521 L5.86499395,25.7301444 L5.86499395,25.7301444 Z M25.8181229,25.7301444 L25.8181229,47.5082521 L9.68401146,47.5082521 L9.68401146,25.7301444 L25.8181229,25.7301444 L25.8181229,25.7301444 Z M26.7959478,47.5082521 L26.7959478,25.7301444 L29.6371404,25.7301444 L29.6371404,47.5082521 L26.7959478,47.5082521 L26.7959478,47.5082521 Z M31.0042619,26.1790775 L30.6149653,26.1790775 L30.6149653,25.2448114 C30.6149653,24.9767862 30.3960547,24.7594783 30.1260528,24.7594783 L5.37608149,24.7594783 C5.10607958,24.7594783 4.88716902,24.9767862 4.88716902,25.2448114 L4.88716902,26.1790775 L4.49787247,26.1790775 C2.61409273,26.1790775 1.0815966,24.6571944 1.0815966,22.7865994 C1.0815966,22.1930371 1.23865973,21.6084534 1.53567406,21.0960631 C1.8345218,20.58161 2.26500923,20.1524543 2.78068966,19.8548238 L17.7509449,12.7768781 L32.7214447,19.8548238 C33.7694285,20.4595488 34.4204155,21.5828521 34.4204155,22.7864781 C34.4205377,23.6928376 34.0650984,24.5447184 33.4196117,25.1856007 C32.7742472,25.8262404 31.9164503,26.1790775 31.0042619,26.1790775 Z"></path>
                                </g>
                            </g>
                        </g>
                    </g>
                </g>
            </g>
        </g>
    </g>
</svg>